原装进口烟丝                    分类    综合排序  销量优先     综合排序  价格从低到高  价格从高到低  人气  新品                     阿拉伯水烟膏 迪拜原装进口阿尔法赫水果味烟丝50克 下单送炭10粒              ¥15.50  月销245笔    进店                  印度水烟PAN RAAS 印度原装进口Afzal水烟烟丝 酒吧KTV水烟烟膏              ¥150.00  月销3笔    进店                  迪拜原装进口阿拉伯水烟膏阿尔法赫高浓水果味烟料非烟丝一盒50克              ¥15.50  月销11笔    进店        相关推荐词    俄罗斯原装进    西班牙原装进    红酒原装进    泰国原装进    台湾原装进    日本原装进    新西兰原装进    韩国原装进    咖啡 原装进                原装进口比利时 hydrostone烟斗陶土加湿片 烟丝保湿片专用1片装              ¥19.90  月销0笔    进店                  原装进口比利时 hydrostone烟斗陶土加湿片 烟丝保湿片专用1片装              ¥19.00  月销0笔    进店                  原装正品CHACOM 进口烟斗通条不易掉毛50支装烟丝斗专用清洁工具              ¥35.80  月销1笔    进店                  原装进口烟具 hydrostone纯天然陶土加湿片 烟丝保湿专用烟斗配件              ¥20.00  月销0笔    进店                  华云Vauen魔戒系列进口石楠木烟斗德国原装长柄阅读斗烟丝烟斗              ¥1530.00  月销3笔    进店                  阿拉伯水烟膏迪拜原装进口阿尔法赫ALFAKHER烟丝烟料果燃50克包邮              ¥17.50  月销2笔    进店        相关推荐词                高档英国烟斗品牌小鹰原装进口石楠木双斗钵烟丝斗烟具送老公客户              ¥2430.90  月销1笔    进店                  原装进口比利时hydrostone纯天然陶土加湿片烟丝保湿片烟斗罐配件              ¥19.00  月销0笔    进店                  意大利原装进口沙芬桌斗咖啡嘴石楠木烟斗烟丝斗男士老公国庆礼物              ¥450.00  月销5笔    进店                  意大利原装进口沙芬桌斗石楠木烟斗烟丝斗男士老公 616 111 626              ¥420.00  月销3笔    进店                  美国进口原装正品 BOVEDA 雪茄保湿包 雪茄烟草烟丝保湿片控湿袋              ¥8.00  月销12笔    进店                  原装进口比利时 hydrostone烟斗配件陶土加湿片 烟丝保湿片专用              ¥19.00  月销10笔    进店        相关推荐词                美国进口原装8克BOVEDA 雪茄保湿包 雪茄烟草烟丝保湿片控湿袋69%              ¥8.00  月销3笔    进店                  原装进口比利时 hydrostone烟斗配件陶土加湿片 烟丝保湿片专用              ¥18.00  月销0笔    进店                  原装进口比利时 hydrostone陶土加湿片 烟丝保湿专用CH21              ¥22.00  月销3笔    进店                  美国进口原装正品 XIKAR西卡 雪茄保湿包 烟草烟丝保湿片控湿袋              ¥8.00  月销6笔    进店                  包邮！正品原装进口 RAW 亚麻布 烟丝包 烟包 手卷收纳 保湿功能              ¥100.00  月销0笔    进店                  原装进口法国ocb金属手动卷烟器70mm手卷烟丝DIY 卷烟器 进口              ¥30.00  月销0笔    进店        相关推荐词                美国进口原装正品 BOVEDA 雪茄保湿包 雪茄烟草烟丝保湿片控湿袋              ¥8.00  月销5笔    进店                  原装进口阿尔法赫水烟膏50g酒吧KTV水烟壶耗材烟料水烟丝alfakher              ¥30.00  月销7笔    进店                  原装进口比利时 hydrostone烟斗陶土加湿片 烟丝加湿片专用1片装              ¥19.00  月销0笔    进店                  包邮 进口原装 英国拉特雷Rattrays烟丝包 牛皮便携带 品牌              ¥350.00  月销0笔    进店                  包邮 原装德国进口Sillem's十字锚烟丝包 便携牛皮黑色烟丝包6030              ¥1060.00  月销0笔    进店                  包邮 原装德国进口Sillem's十字锚烟丝包 便携牛皮烟丝袋黑色6020              ¥900.00  月销0笔    进店        相关推荐词                美国 Atmos 原装进口 保湿片 保湿器 烟丝加湿片(1个)Y029不发霉              ¥15.00  月销0笔    进店                  德国原装进口Sillems十字架925纯银烟斗烟丝烟叶压棒通针烟具配件              ¥1800.00  月销0笔    进店                  意大利沙芬 网球运动系列烟斗斗包套装石楠木烟丝斗原装进口              ¥1680.00  月销0笔    进店           {"chanpin":"regular","city":"610100","description":"天猫精选原装进口烟丝专题，我们从价格、评价、销量出发，为您精选了和原装进口烟丝相关的377个商品","groupId":117,"h5Uri":"/mblist/regular_rSt1k7qQAbvF3WNRSe-7O2pVeWU_XMaVfljTk_Shse4.html","h5Url":"https://m.tmall.com/mblist/regular_rSt1k7qQAbvF3WNRSe-7O2pVeWU_XMaVfljTk_Shse4.html","mainPic":"//gw.alicdn.com/bao/uploaded/i2/2875646121/O1CN01XUg4p31v5Snqx48qO_!!2875646121.jpg","pcUri":"/mlist/regular_rSt1k7qQAbvF3WNRSe-7O2pVeWU_XMaVfljTk_Shse4.html","pcUrl":"https://www.tmall.com/mlist/regular_rSt1k7qQAbvF3WNRSe-7O2pVeWU_XMaVfljTk_Shse4.html","sort":"commend","title":"原装进口烟丝【多图】_价格_图片- 天猫精选","word":"原装进口烟丝"}  [{"chanpin":"tmall","mobileUrl":"https://m.tmall.com/mblist/cp_tu3C3su51K3XsL34.html","pcUrl":"https://www.tmall.com/mlist/cp_tu3C3su51K3XsL34.html","word":"俄罗斯原装进"},{"chanpin":"tmall","mobileUrl":"https://m.tmall.com/mblist/cp_zvew4NHA1K3XsL34.html","pcUrl":"https://www.tmall.com/mlist/cp_zvew4NHA1K3XsL34.html","word":"西班牙原装进"},{"chanpin":"tmall","mobileUrl":"https://m.tmall.com/mblist/cp_uuy-xtSt17C9-A==.html","pcUrl":"https://www.tmall.com/mlist/cp_uuy-xtSt17C9-A==.html","word":"红酒原装进"},{"chanpin":"tmall","mobileUrl":"https://m.tmall.com/mblist/cp_zKm5-tSt17C9-A==.html","pcUrl":"https://www.tmall.com/mlist/cp_zKm5-tSt17C9-A==.html","word":"泰国原装进"},{"chanpin":"tmall","mobileUrl":"https://m.tmall.com/mblist/cp_zKjN5dSt17C9-A==.html","pcUrl":"https://www.tmall.com/mlist/cp_zKjN5dSt17C9-A==.html","word":"台湾原装进"},{"chanpin":"tmall","mobileUrl":"https://m.tmall.com/mblist/cp_yNWxvtSt17C9-A==.html","pcUrl":"https://www.tmall.com/mlist/cp_yNWxvtSt17C9-A==.html","word":"日本原装进"},{"chanpin":"tmall","mobileUrl":"https://m.tmall.com/mblist/cp_0MLO98C81K3XsL34.html","pcUrl":"https://www.tmall.com/mlist/cp_0MLO98C81K3XsL34.html","word":"新西兰原装进"},{"chanpin":"tmall","mobileUrl":"https://m.tmall.com/mblist/cp_uqu5-tSt17C9-A==.html","pcUrl":"https://www.tmall.com/mlist/cp_uqu5-tSt17C9-A==.html","word":"韩国原装进"},{"chanpin":"tmall","mobileUrl":"https://m.tmall.com/mblist/cp_v6e3yCDUrdewvfg=.html","pcUrl":"https://www.tmall.com/mlist/cp_v6e3yCDUrdewvfg=.html","word":"咖啡 原装进"}]  {"currentPage":1,"nextPage":2,"pageSize":30,"prePage":1,"totalCount":377,"totalPage":13}